********************************************************************************
DUPLICATOR-LITE PACKAGE-LOG: 23/02/2022 21:24
NOTICE: Do NOT post to public sites or forums 
********************************************************************************
VERSION:	1.4.4
WORDPRESS:	5.9.1
PHP INFO:	7.4.1 | SAPI: cgi-fcgi
SERVER:		nginx/1.16.0 
PHP TIME LIMIT: (0) no time limit imposed 
PHP MAX MEMORY: 4294967296 (256M default) 
MEMORY STACK: 12MB

********************************************************************************
DATABASE:
********************************************************************************
BUILD MODE:   PHP(query limit - 100)
MYSQLTIMEOUT: 5000
MYSQLDUMP:    Not Supported
TABLES: total:13 | filtered:0 | create:13
FILTERED: []
SQL CREATED: 20220223_adoteumlobinho_86c88567addb21016101_20220223212358_database.sql
SQL FILE SIZE: 1.22MB (1283081)
SQL FILE TIME: 2022-02-23 21:24:22
SQL RUNTIME: 1.21 sec.

********************************************************************************
ARCHIVE (ZIP):
********************************************************************************
ARCHIVE DIR:  C:/Users/Orpheu/Local Sites/adote-um-lobinho/app/public
ARCHIVE FILE: 20220223_adoteumlobinho_86c88567addb21016101_20220223212358_archive.zip
FILTERS: *OFF*
DIRS:
	not set
FILES:
	not set
EXTS:  not set
----------------------------------------
COMPRESSING
SIZE:	76.41MB
STATS:	Dirs 506 | Files 3,557
SQL ADDED: 20220223_adoteumlobinho_86c88567addb21016101_20220223212358_database.sql
ZipArchive Object
(
    [status] => 0
    [statusSys] => 0
    [numFiles] => 4063
    [filename] => C:\Users\Orpheu\Local Sites\adote-um-lobinho\app\public\wp-content\backups-dup-lite\tmp\20220223_adoteumlobinho_86c88567addb21016101_20220223212358_archive.zip
    [comment] => 
)

FILE ADDED TO ZIP: 4062
COMPRESSION RESULT: '1'
COMPRESSED SIZE: 28.96MB
ARCHIVE RUNTIME: 46.56 sec.
MEMORY STACK: 14MB
building installer
add_extra_files1
add_extra_files2
add_extra_files3
add_extra_files4
Doing archive file check
add_extra_files5
add_extra_files6
add_extra_files8
Successfully opened zip C:/Users/Orpheu/Local Sites/adote-um-lobinho/app/public/wp-content/backups-dup-lite/tmp/20220223_adoteumlobinho_86c88567addb21016101_20220223212358_archive.zip
Adding enhanced installer files to archive using ZipArchive
Installer files added to archive
Added to archive
After ziparchive close when adding installer

********************************************************************************
INTEGRITY CHECKS:
********************************************************************************
SQL FILE: 1.22MB
INSTALLER FILE: 64.6KB
ARCHIVE FILE: 29.98MB 
EXPECTED FILE/DIRECTORY COUNT: 4,063
ACTUAL FILE/DIRECTORY COUNT: 4,062
ARCHIVE CONSISTENCY TEST: Pass

********************************************************************************
RECORD ID:[1]
TOTAL PROCESS RUNTIME: 51.14 sec.
PEAK PHP MEMORY USED: 18MB
DONE PROCESSING => 20220223_adoteumlobinho 23/02/2022 21:25

